{
  "inferences": [
    "1P_Custom_80s_Decade_Streamers",
    "1P_Custom_Affinity_Remitly [Advertiser-Specific]",
    "1P_Custom_Android_Mobile_Streamers",
    "1P_Custom_Christmas_Music_Listeners",
    "1P_Custom_Disney_Marvel_Playlist_Streamers",
    "1P_Custom_Enthusiatic_Mood_Listeners",
    "1P_Custom_GenZ [Insights Only]",
    "1P_Custom_In-Car Streamers",
    "1P_Custom_LxA_Users",
    "1P_Custom_Mindfulness_Seekers",
    "1P_Custom_Personal_Wellness",
    "1P_Custom_Relaxation",
    "1P_Custom_Samsung_Podcast_Streamers [Advertiser-Restricted]",
    "1P_Custom_Smart_Technology_Streamers",
    "1P_Custom_Social_Streamers_Broad",
    "1P_Custom_Soothing_Sounds",
    "1P_Custom_T-Mobile_Switchers [Advertiser-Restricted]",
    "1P_Custom_Wrapped2019",
    "1P_Internal_Premium_Standard_Subscribers",
    "3P_Action Gamers_FR",
    "3P_Alcohol Consumers_BR",
    "3P_Alcohol Consumers_FR",
    "3P_Alcohol Consumers_MX",
    "3P_AmazonBlackFriday_FR",
    "3P_Android Users_AU",
    "3P_Android Users_CA",
    "3P_Android Users_DE",
    "3P_Android Users_FR",
    "3P_Android Users_IT",
    "3P_Android Users_UK",
    "3P_Android Users_US",
    "3P_Apple Products_US",
    "3P_Apple iOS Users_AU",
    "3P_Apple iOS Users_CA",
    "3P_Apple iOS Users_DE",
    "3P_Apple iOS Users_FR",
    "3P_Apple iOS Users_IT",
    "3P_Apple iOS Users_UK",
    "3P_Arts & Culture_FR",
    "3P_Arts & Culture_UK",
    "3P_Arts and Culture Enthusiasts_DE",
    "3P_BMW Enthusiast_IT",
    "3P_Bank Account Holders_ES",
    "3P_Beer Drinkers_DE",
    "3P_Budget Holidayers_DE",
    "3P_Budget Holidayers_FR",
    "3P_Car Buyers_DE",
    "3P_Car Buyers_FR",
    "3P_Cat Owners_FR",
    "3P_Cinema Goers_DE",
    "3P_Cinema Goers_FR",
    "3P_Compact Car Owners / Buyers_FR",
    "3P_Cooking Enthusiasts_FR",
    "3P_Cosmetics Buyers / Beauty Enthusiasts_DE",
    "3P_Cosmetics Buyers / Beauty Enthusiasts_ES",
    "3P_Cosmetics Buyers / Beauty Enthusiasts_IT",
    "3P_Cruise Vacationers_DE",
    "3P_Custom_ FR_Beverages - Alcohol shoppers_12-March-2021_FR",
    "3P_Custom_ FR_Beverages - Non-Alcoholic Drink Shoppers_12-March-2021_FR",
    "3P_Custom_ FR_Food - Biscuits and Confectionnery and Snacks_12-March-2021_FR",
    "3P_Custom_Animation / Cartoon Enthusiasts_FR",
    "3P_Custom_Aquatic Sports Enthusiasts_FR",
    "3P_Custom_Arts and Culture Enthusiasts_US",
    "3P_Custom_BMW_Intenders_FR",
    "3P_Custom_BMW_Thrillseeking Car Enthusiasts_UK",
    "3P_Custom_BT_Indulgent Imitators_UK",
    "3P_Custom_Back To School Shoppers_FR",
    "3P_Custom_Boating/Water Sports Enthusiasts_09June2021_US",
    "3P_Custom_Capital One_HHI $50 - $200k_10Sep2020_US [Advertiser-specific]",
    "3P_Custom_Capital One_HHI $75 - $200k_10Sep2020_US [Advertiser-specific]",
    "3P_Custom_Comic Enthusiasts_14Jan2021_US",
    "3P_Custom_Culture Next 2020 - Gen Z Starts From Scratch",
    "3P_Custom_E-Learners_AU",
    "3P_Custom_E-Learners_CA",
    "3P_Custom_E-Learners_DE",
    "3P_Custom_E-Learners_FR",
    "3P_Custom_E-Learners_UK",
    "3P_Custom_E-Learners_US",
    "3P_Custom_EE_Digital Dynamos_UK",
    "3P_Custom_EE_Top End Techtastics_UK",
    "3P_Custom_FIFA World Cup Watchers/Enthusiasts_30Nov2021_WW",
    "3P_Custom_Family Movie Enthusiasts_FR",
    "3P_Custom_Father's Day Gift Givers_07April2022_US",
    "3P_Custom_Formula1_Enthusiasts_DE",
    "3P_Custom_Formula1_Enthusiasts_ES",
    "3P_Custom_Formula1_Enthusiasts_FR",
    "3P_Custom_Formula1_Enthusiasts_UK",
    "3P_Custom_Frequent Travelers_FR",
    "3P_Custom_Golfers_15Nov2021_CA",
    "3P_Custom_HHI $75K-$150K_17September2020_US",
    "3P_Custom_Heineken_Desperados Audience_DE",
    "3P_Custom_Heineken_Desperados Audience_ES",
    "3P_Custom_Insurance Policyholders / Intenders_FR",
    "3P_Custom_Jewelry Shoppers_US",
    "3P_Custom_Life Insurance Policyholders / Intenders_FR",
    "3P_Custom_Lower_HHI_BR",
    "3P_Custom_Mercedes Owners_ES",
    "3P_Custom_Mercedes Owners_FR",
    "3P_Custom_Music Enthusiasts_08Dec2021_US",
    "3P_Custom_Olympic Summer Games Enthusiasts_UK",
    "3P_Custom_Online / Mobile Banking Users_UK",
    "3P_Custom_Online Dating Users_DE",
    "3P_Custom_Online Dating Users_FR",
    "3P_Custom_OscarsViewers_7Mar2022_CA",
    "3P_Custom_P&G_AZ Pro Expert_IT",
    "3P_Custom_P&G_DASH_IT",
    "3P_Custom_P&G_H&S Supreme BT_IT",
    "3P_Custom_P&G_Pantene Product Transformation_IT",
    "3P_Custom_P&G_SWIFFER_IT",
    "3P_Custom_Parents of Toddlers_30Nov2020_US",
    "3P_Custom_Parents_12Nov2020_CA",
    "3P_Custom_Pasta Buyers_FR",
    "3P_Custom_Photography Enthusiasts_25-Mar-2022_ES",
    "3P_Custom_Politics_Independents_US [Restricted Use]",
    "3P_Custom_Role Playing Gamers_10Feb2021_US",
    "3P_Custom_Samsung Mobile Phone_31January2022_US",
    "3P_Custom_Security Operations Role_28Oct2019_US",
    "3P_Custom_Skiing Enthusiasts_ES",
    "3P_Custom_Skincare Category Buyers_FR",
    "3P_Custom_Soccer Enthusiasts_26May2022_CA",
    "3P_Custom_Sonos_Culture Seekers persona",
    "3P_Custom_Sonos_Design Audience",
    "3P_Custom_Sonos_Sound Audience",
    "3P_Custom_Toys & Board / Card Games Enthusiasts_FR",
    "3P_Custom_Use Productivity Apps / Software_2Jan2021_US",
    "3P_Custom_Use Productivity Apps / Software_DE",
    "3P_Custom_Use Productivity Apps / Software_FR",
    "3P_Custom_Use Productivity Apps / Software_US [Do Not Use in 2021]",
    "3P_Custom__ Retail and Consumer Goods - Clothes - Interest - Online Purchase_28-Feb-2021_WW",
    "3P_Custom__Cooking & Recipes_19-Feb-2021_FR",
    "3P_Custom__Cosmetics_28-Feb-2021_DE",
    "3P_Custom__Music Festivals_19-Feb-2021_DE",
    "3P_Custom__Music Festivals_19-Feb-2021_FR",
    "3P_Custom__Online Shopping_28-Feb-2021_DE",
    "3P_Custom__Outdoor Enthusiasts_19-Feb-2021_FR",
    "3P_Custom_eXelate Interest_Tech Enthusiasts_26-Jan-2021_US",
    "3P_Custom_eXelate_eXelate Intent - Shopping - Personal Tech - Video Games_19-Feb-2021_WW",
    "3P_Custom_eXelate_eXelate Interest - Entertainment - Video Games_19-Feb-2021_WW",
    "3P_Custom_eXelate_eXelate Interest - Purchase Behaviors - Shopping - Personal Tech - Video Games_19-Feb-2021_WW",
    "3P_Cybersecurity_Enthusiasts_FR",
    "3P_Cycling Enthusiasts_ES",
    "3P_DIY Enthusiasts_CA",
    "3P_DIY Enthusiasts_DE",
    "3P_DIY Enthusiasts_FR",
    "3P_DO NOT USE_Custom_ FR_Bleach Buyers_FR",
    "3P_DO NOT USE_Custom_ FR_Frozen Pizza Buyers_FR",
    "3P_DO NOT USE_Custom_ FR_Laundry Detergent Capsule / Tablet Buyers_FR",
    "3P_DO NOT USE_Custom_ FR_Roll On Deodorant Buyers_FR",
    "3P_DO NOT USE_Custom_ FR_Whisky Buyers_FR",
    "3P_Declared Parents_25May2022_US",
    "3P_Discount Shoppers / Value Seekers_DE",
    "3P_Discount Shoppers / Value Seekers_FR",
    "3P_Disney Movies Enthusiasts_FR",
    "3P_Electronics Shoppers_US",
    "3P_Entertainment Enthusiasts_BR",
    "3P_Entertainment Enthusiasts_CA",
    "3P_Entertainment Enthusiasts_DE",
    "3P_Entertainment Enthusiasts_ES",
    "3P_Entertainment Enthusiasts_FR",
    "3P_Entertainment Enthusiasts_IT",
    "3P_Entertainment Enthusiasts_MX",
    "3P_Family Entertainment Enthusiasts_FR",
    "3P_Family/Children's Shoppers_DE",
    "3P_Family/Children's Shoppers_FR",
    "3P_Fast Food_BR",
    "3P_Fast Food_MX",
    "3P_Festival Goers_DE",
    "3P_Festival Goers_FR",
    "3P_Foodies_DE",
    "3P_Foodies_FR",
    "3P_Frequent Shoppers_BR",
    "3P_Frequent Shoppers_MX",
    "3P_Frequent Shoppers_US",
    "3P_Frequent Travelers_BR",
    "3P_Frequent Travelers_MX",
    "3P_Gamers_CA",
    "3P_Gamers_DE",
    "3P_Gamers_FR",
    "3P_Gamers_UK",
    "3P_Gamers_US",
    "3P_Green Living Enthusiasts_BR",
    "3P_Green/Hybrid Auto Buyers_FR",
    "3P_Grocery Buyers / Head of Household_BR",
    "3P_Grocery Buyers / Head of Household_MX",
    "3P_Home Improvement & Decoration_FR",
    "3P_Home Improvement / DIY_BR",
    "3P_Home Improvement / DIY_MX",
    "3P_Job Seekers_FR",
    "3P_Jobseekers_DE",
    "3P_Laptop_PC_Purchase Intenders_DE",
    "3P_Luxury Car Buyers_FR",
    "3P_Luxury Holidayers_DE",
    "3P_Luxury Holidayers_FR",
    "3P_Luxury Retail Shoppers_IT",
    "3P_Men's Apparel_FR",
    "3P_Motorcycle Enthusiasts_DE",
    "3P_Motorcycle Enthusiasts_FR",
    "3P_Motorcycle Enthusiasts_IT",
    "3P_Motorsport Enthusiasts_DE",
    "3P_Movie Goers_DE",
    "3P_Movie Goers_ES",
    "3P_Movie Goers_FR",
    "3P_Movie Goers_IT",
    "3P_Movie Goers_UK",
    "3P_Online Shoppers_BR",
    "3P_Online Shoppers_DE",
    "3P_Online Shoppers_ES",
    "3P_Online Shoppers_FR",
    "3P_Online Shoppers_IT",
    "3P_Online Shoppers_MX",
    "3P_Outdoor Enthusiasts_FR",
    "3P_Personal Investors_DE",
    "3P_Personal Investors_FR",
    "3P_Pet Owners_FR",
    "3P_Photography Enthusiasts_FR",
    "3P_Professional Sports Fans_DE",
    "3P_Real_Estate_Interest_DE",
    "3P_Role Playing Gamers_DE",
    "3P_Role Playing Gamers_FR",
    "3P_Romance Movie Enthusiasts_ES",
    "3P_Romance Movie Enthusiasts_FR",
    "3P_Romance Movie Enthusiasts_UK",
    "3P_Rugby_Enthusiasts_AU",
    "3P_Sci-Fi Enthusiasts_FR",
    "3P_Smartphones_US",
    "3P_Style Watchers / Fashionistas_BR",
    "3P_Style Watchers / Fashionistas_DE",
    "3P_Style Watchers / Fashionistas_ES",
    "3P_Style Watchers / Fashionistas_FR",
    "3P_Style Watchers / Fashionistas_IT",
    "3P_Style Watchers / Fashionistas_MX",
    "3P_Super Hero Movies Enthusiasts_AU",
    "3P_Super Hero Movies Enthusiasts_DE",
    "3P_Super Hero Movies Enthusiasts_ES",
    "3P_Super Hero Movies Enthusiasts_FR",
    "3P_Super Hero Movies Enthusiasts_IT",
    "3P_Super Hero Movies Enthusiasts_UK",
    "3P_Tech Early Adopters_DE",
    "3P_Tech Early Adopters_UK",
    "3P_Tech Early Adopters_US",
    "3P_Tech Enthusiasts_UK",
    "3P_Travelers_DE",
    "3P_Travelers_FR",
    "3P_Value/Coupon Shoppers_BR",
    "3P_Value/Coupon Shoppers_MX",
    "3P_Video_Gamers_BR",
    "3P_Women's Apparel_BR",
    "3P_Women's Apparel_DE",
    "3P_Women's Apparel_FR",
    "3P_Womens Apparel_IT",
    "3P_Xbox_Owners/Purchasers_DE",
    "3P__Personal Finance_18-May-2021_US",
    "Adam Test Segment",
    "Comedy",
    "TEST_DONOTUSE_1P_Podcast_Category_Arts_And_Entertainment",
    "TEST_DONOTUSE_1P_Podcast_Category_Stories"
  ]
}