{
  "tracks": [
    {
      "artist": "Felckin",
      "album": "Cube",
      "track": "Cube",
      "uri": "spotify:track:7kE0T1zdsUZ10NZ2JLfgtB"
    },
    {
      "artist": "Pink Floyd",
      "album": "The Wall (Remastered)",
      "track": "Comfortably Numb - 2011 Remastered Version",
      "uri": "spotify:track:7Fg4jpwpkdkGCvq1rrXnvx"
    },
    {
      "artist": "Belik Boom",
      "album": "Best of Belik",
      "track": "Too Seriously",
      "uri": "spotify:track:4fXXoazNxK1zTFyZ0suDSA"
    },
    {
      "artist": "Orelsan",
      "album": "Civilisation",
      "track": "L'odeur de l'essence",
      "uri": "spotify:track:4c3TC1eWvz6BgOqSlOAKdT"
    },
    {
      "artist": "Rigopolar",
      "album": "Greater Ep",
      "track": "Sun of Lemuria",
      "uri": "spotify:track:1Uj7gF50zr1MZxRIavb0dq"
    },
    {
      "artist": "Ramones",
      "album": "Ramones",
      "track": "Blitzkrieg Bop - 2016 Remaster",
      "uri": "spotify:track:4KcH1ZRV2W1q7Flq0QqC76"
    },
    {
      "artist": "Pink Floyd",
      "album": "The Division Bell",
      "track": "High Hopes - 2011 Remaster",
      "uri": "spotify:track:236mI0lz8JdQjlmijARSwY"
    },
    {
      "artist": "The Trashmen",
      "album": "Surfin' Bird",
      "track": "Surfin' Bird",
      "uri": "spotify:track:2Mik4RyMTMGXscX9QGiDoX"
    },
    {
      "artist": "Brigitte Fontaine",
      "album": "Je ne connais pas cet homme - Fontaine 4",
      "track": "C'est normal",
      "uri": "spotify:track:6RAoUrnaMF6ttwGWSTDOk5"
    },
    {
      "artist": "David Lanz",
      "album": "Cristofori's Dream",
      "track": "Cristofori's Dream - Remastered",
      "uri": "spotify:track:0T1fYZ8S1n52rXW18f0PQZ"
    },
    {
      "artist": "Demi Portion",
      "album": "1990",
      "track": "Phénoménal",
      "uri": "spotify:track:3zUSrZuCTkdjvXv3h1AbDl"
    },
    {
      "artist": "The Police",
      "album": "The Very Best Of Sting And The Police",
      "track": "Roxanne",
      "uri": "spotify:track:2NMgVh5qaPprKTEzFe3501"
    },
    {
      "artist": "Tom Budin",
      "album": "Sugar’s Delight",
      "track": "Sugar’s Delight",
      "uri": "spotify:track:4I64LLvDVzyXQSJFo3OIm5"
    },
    {
      "artist": "The Animals",
      "album": "The Singles Plus",
      "track": "House of the Rising Sun",
      "uri": "spotify:track:4mn2kNTqiGLwaUR8JdhJ1l"
    },
    {
      "artist": "JAWNY",
      "album": "For Abby",
      "track": "Trigger Of Love",
      "uri": "spotify:track:3soKdLpgZNCtYLRsnwxwfB"
    },
    {
      "artist": "The Servant",
      "album": "The Servant",
      "track": "Orchestra",
      "uri": "spotify:track:0D0deKeVfYyNos4M4Spmo2"
    },
    {
      "artist": "Kerchak",
      "album": "Confiance",
      "track": "Tarzan",
      "uri": "spotify:track:1gC638kMXMDa5FJsqLLPAC"
    },
    {
      "artist": "Uriah Heep",
      "album": "Celebration",
      "track": "Lady In Black",
      "uri": "spotify:track:2U2ByqoO82fnayaPzO4x2d"
    },
    {
      "artist": "Lorenzo",
      "album": "Sex In The City",
      "track": "Voyage auditif",
      "uri": "spotify:track:7blCa3xM3E8sHOjMSOS6nk"
    },
    {
      "artist": "James Deano",
      "album": "Le Fils Du Commissaire",
      "track": "Les Blancs Ne Savent Pas Danser",
      "uri": "spotify:track:7BcMn8CVTKaVCYTmcaiIvD"
    },
    {
      "artist": "Francis Cabrel",
      "album": "Le Soldat Rose",
      "track": "Gardien de nuit",
      "uri": "spotify:track:1CFbXVHm6DKIL37kIgNe8c"
    },
    {
      "artist": "La P'tite Fumée",
      "album": "Owl Rising",
      "track": "Elements",
      "uri": "spotify:track:5HICyxOqbdKjYENqj6zkz2"
    },
    {
      "artist": "Murderdolls",
      "album": "Beyond The Valley Of The Murderdolls [Special Edition]",
      "track": "197666",
      "uri": "spotify:track:5mMpfWR1b2jjrQXExMzXys"
    },
    {
      "artist": "Trei Degete",
      "album": "Time Time",
      "track": "Time Time",
      "uri": "spotify:track:5wKDPtbdggE1roeVp3UdXX"
    },
    {
      "artist": "KeBlack",
      "album": "Contrôle",
      "track": "Pas permis",
      "uri": "spotify:track:0hYRtveIf2cy9PgFUk4uDm"
    },
    {
      "artist": "La Pompe Moderne",
      "album": "Plus Dur, Meilleur, Plus Rapide, Plus Fort",
      "track": "Plus Dur, Meilleur, Plus Rapide, Plus Fort",
      "uri": "spotify:track:7eGJq3A80CHNqp8BHTdpr6"
    },
    {
      "artist": "Sopico",
      "album": "Nuages",
      "track": "Slide",
      "uri": "spotify:track:32VZYmrIzvjQFkzhd0kjcx"
    },
    {
      "artist": "Kanka",
      "album": "Alert",
      "track": "Nova Dub",
      "uri": "spotify:track:6GokgbicixygLcTrvwxqkQ"
    },
    {
      "artist": "Kerchak",
      "album": "Confiance",
      "track": "Peur (feat. Ziak)",
      "uri": "spotify:track:0S1WhhsVn5wxUngCz5TQnE"
    },
    {
      "artist": "ORANGE",
      "album": "Hu",
      "track": "Pankobabaunka",
      "uri": "spotify:track:3A3ajsjijV89D9gcSMwyGo"
    },
    {
      "artist": "Sister Nancy",
      "album": "One Two",
      "track": "Bam Bam",
      "uri": "spotify:track:7cKLOenzViwzoHJWciMIrj"
    },
    {
      "artist": "Orloge Simard",
      "album": "Beuvez tousjours, ne mourez jamais",
      "track": "Cabane à pêche",
      "uri": "spotify:track:7e1oU4WVmb83XGVnaoru2M"
    },
    {
      "artist": "Mr. Bassmeister",
      "album": "Iron Dick",
      "track": "Iron Dick",
      "uri": "spotify:track:5AOso5i8erjzJjUQvIWcG3"
    },
    {
      "artist": "Roméo Elvis",
      "album": "Morale 2",
      "track": "Bébé aime la drogue",
      "uri": "spotify:track:5UhGxDWZRSb2ZQNyiOWWTD"
    },
    {
      "artist": "Morphine",
      "album": "Cure for Pain",
      "track": "Buena",
      "uri": "spotify:track:2SSBJhvMsujY94GK5JAtKs"
    },
    {
      "artist": "Ouai Stéphane",
      "album": "EP de trois musiques",
      "track": "Dernière Musique",
      "uri": "spotify:track:1GEUrAgHS88Ltp2XkdfxHn"
    },
    {
      "artist": "Lil Nas X",
      "album": "7 EP",
      "track": "Old Town Road",
      "uri": "spotify:track:0F7FA14euOIX8KcbEturGH"
    },
    {
      "artist": "Die Antwoord",
      "album": "Ten$ion",
      "track": "Baby's On Fire",
      "uri": "spotify:track:6mlGXuG5FmzcePHsMn6rIA"
    },
    {
      "artist": "Fleetwood Mac",
      "album": "Rumours",
      "track": "The Chain - 2004 Remaster",
      "uri": "spotify:track:5e9TFTbltYBg2xThimr0rU"
    },
    {
      "artist": "Cactus et Mammuth",
      "album": "Les extraterrestres sont là",
      "track": "Toilette d'autoroute",
      "uri": "spotify:track:4tiKINtC6ider2t6xdYOOj"
    },
    {
      "artist": "Tryo",
      "album": "La pittoresque histoire de Pitt Ocha",
      "track": "Mam'selle bulle",
      "uri": "spotify:track:3qOtWKFjrGJky92RPuZH9K"
    },
    {
      "artist": "Dubtendo",
      "album": "Melodica of Time",
      "track": "Melodica of Time",
      "uri": "spotify:track:2mg6UWesAsu7bigUf1KCyu"
    },
    {
      "artist": "winnterzuko",
      "album": "2036",
      "track": "Trotski",
      "uri": "spotify:track:7ksS1hGFEZf6pXk9Sf3RXL"
    },
    {
      "artist": "Xvngo",
      "album": "My Lady (Jazz Drill)",
      "track": "My Lady (Jazz Drill)",
      "uri": "spotify:track:46sUvNuk64Z5sJZA771Vxd"
    },
    {
      "artist": "Jacidorex",
      "album": "Abyssal Kick",
      "track": "Abyssal Kick",
      "uri": "spotify:track:0s5NNip7Sgv9KJ4qCKXgUk"
    },
    {
      "artist": "ZZCCMXTP",
      "album": "ZZCCMXTP",
      "track": "Délirium Café",
      "uri": "spotify:track:5aFmEZB32GCBrwCC3uBfLu"
    },
    {
      "artist": "Les keke-boys",
      "album": "Train pour Bandol",
      "track": "Train pour Bandol",
      "uri": "spotify:track:44uIDpnTqjUpfweFA4lrCr"
    },
    {
      "artist": "Fleetwood Mac",
      "album": "Rumours",
      "track": "Gold Dust Woman - 2004 Remaster",
      "uri": "spotify:track:2ssyECwAX5JxtcAUTFw7wI"
    },
    {
      "artist": "Lujipeka",
      "album": "Montagnes Russes",
      "track": "Poupée Russe",
      "uri": "spotify:track:08Wp4lUKmtyAgX6w9KhTeM"
    },
    {
      "artist": "The Cat Empire",
      "album": "Steal the Light",
      "track": "Still Young",
      "uri": "spotify:track:4q7klA9ggWknZDhHhz9XYp"
    },
    {
      "artist": "Bootleg Rascal",
      "album": "Psychotica",
      "track": "Psychotica",
      "uri": "spotify:track:52jdY2BNEpFh1I2ek9sRld"
    },
    {
      "artist": "You Man",
      "album": "Restless",
      "track": "Birdcage",
      "uri": "spotify:track:1v6wfh5bUCnOttxRUpNST2"
    },
    {
      "artist": "ZZCCMXTP",
      "album": "ZZCCMXTP",
      "track": "Lezgongue",
      "uri": "spotify:track:5llgs0eikkVqiZOfODaqe8"
    },
    {
      "artist": "Gorillaz",
      "album": "Demon Days",
      "track": "Feel Good Inc.",
      "uri": "spotify:track:0d28khcov6AiegSCpG5TuT"
    },
    {
      "artist": "The Doors",
      "album": "L.A. Woman",
      "track": "Riders on the Storm",
      "uri": "spotify:track:14XWXWv5FoCbFzLksawpEe"
    },
    {
      "artist": "Les Betteraves",
      "album": "Beaucoup de bruit pour (presque) rien",
      "track": "Pif paf pouf",
      "uri": "spotify:track:51KvgxZIwR1n1uZxxo5ZId"
    }
  ],
  "albums": [
    {
      "artist": "Trei Degete",
      "album": "Time Time",
      "uri": "spotify:album:7xMm03yU17hL31Ul5ctPnw"
    },
    {
      "artist": "Orelsan",
      "album": "Civilisation",
      "uri": "spotify:album:2o2GBOfy2GG9oKYZgfZkur"
    },
    {
      "artist": "Dooz Kawa",
      "album": "Bohemian Rap Story",
      "uri": "spotify:album:0CuVqlqPNuMUWudiXEilS9"
    }
  ],
  "shows": [
    {
      "name": "Underscore_",
      "publisher": "Micode",
      "uri": "spotify:show:1sz1NhoHqbpXbzNlpOnFoz"
    }
  ],
  "episodes": [
  ],
  "bannedTracks": [
  ],
  "artists": [
    {
      "name": "Cactus et Mammuth",
      "uri": "spotify:artist:1FbWwqYe8GB8Hi1lVC0zVX"
    },
    {
      "name": "El Desperado",
      "uri": "spotify:artist:2ajGq9BEnKOi6B5wTZ7uWn"
    },
    {
      "name": "Jacidorex",
      "uri": "spotify:artist:0XSNxwt21dxcFTxaYtQjwe"
    }
  ],
  "bannedArtists": [
    {
      "name": "Millésime K",
      "uri": "spotify:artist:4thTtxMJGUDtfPr8G1CTmC"
    }
  ],
  "other": [
  ]
}